%YAML 1.1
%TAG !u! tag:unity3d.com,2011:
--- !u!162 &1
EditorUserSettings:
  m_ObjectHideFlags: 0
  serializedVersion: 4
  m_ConfigSettings:
    RecentlyUsedScenePath-0:
      value: 22424703114646680e0b0227036c6c111b07142f1f2b233e2867083debf42d
      flags: 0
    RecentlyUsedScenePath-1:
      value: 224247031146466b011b0b2b1e301034131a112d25292824620d3207f5e53136d2f539a9c2223e31290eea2f4b1a2e0be50f0c05c60a1e035f1bf30705e6
      flags: 0
    RecentlyUsedScenePath-2:
      value: 224247031146466b011b0b2b1e301034131a112d25292824620d3207f5e53136d2f539a9c2223e31290eea2f4b1a2e0be50f0c05d7050306101af4011fc0321202cc1bd654dd1115df00
      flags: 0
    RecentlyUsedScenePath-3:
      value: 224247031146466b011b0b2b1e301034131a112d25292824620d3207f5e53136d2f539a9c2223e31290eea2f4b1a2e0be50f0c05d7050306101af4011fc0311707c416c61fcc5109c51008d7
      flags: 0
    RecentlyUsedScenePath-4:
      value: 224247031146467a3b3e1e2d262a5b1519583c2f2127357f7c792217e7ed3b07d6f537e7f42a3e2e3c0cec254a2b0f36e613
      flags: 0
    RecentlyUsedScenePath-5:
      value: 200b1b3316501b484202052c1c2610341304133e233869160c051c31ddc53a2cf0fe06fbe8303a3f2d0be0324b1f122cf71e1a44c9260b021f41ce0d14f115005e9549883cc4100b850c12c7d904
      flags: 0
    RecentlyUsedScenePath-6:
      value: 2242470311464664200f052c5f105c1518120b651f292b20212c2e30e7ee3176f7e93ffdfe
      flags: 0
    RecentlyUsedScenePath-7:
      value: 2242470311464664200f052c5f105c1518120b657c7b6b1621260a7df7ee3d2cfb
      flags: 0
    vcSharedLogLevel:
      value: 0d5e400f0650
      flags: 0
  m_VCAutomaticAdd: 1
  m_VCDebugCom: 0
  m_VCDebugCmd: 0
  m_VCDebugOut: 0
  m_SemanticMergeMode: 2
  m_VCShowFailedCheckout: 1
  m_VCOverwriteFailedCheckoutAssets: 1
  m_VCProjectOverlayIcons: 1
  m_VCHierarchyOverlayIcons: 1
  m_VCOtherOverlayIcons: 1
  m_VCAllowAsyncUpdate: 1
